Minimum Wage and Inflation, Discourse
…
CPI_table$title <- CPI_table$series_id
#add title row based on values of the series_id
CPI_table$title[CPI_table$series_id == 'CUSR0000SA0      '] <- 'Seasonally Adjusted (monthly average)'
CPI_table$title[CPI_table$series_id == 'CUUR0000SA0      '] <- 'Not Seasonally Adjusted (monthly average)'
CPI_table$title[CPI_table$series_id == 'CUUS0000SA0      '] <- 'Not Seasonally Adjusted (semi-annual average)'

#group to remove extra items
CPI_table <- CPI_table %>% 
  group_by(title, year) %>% 
  summarise(., value = mean(value))

CPI_table

## Source: local data frame [209 x 3]
## Groups: title [?]
## 
##                                        title  year     value
##                                        <chr> <dbl>     <dbl>
## 1  Not Seasonally Adjusted (monthly average)  1913  9.884615
## 2  Not Seasonally Adjusted (monthly average)  1914 10.015385
## 3  Not Seasonally Adjusted (monthly average)  1915 10.107692
## 4  Not Seasonally Adjusted (monthly average)  1916 10.884615
## 5  Not Seasonally Adjusted (monthly average)  1917 12.823077
## 6  Not Seasonally Adjusted (monthly average)  1918 15.046154
## 7  Not Seasonally Adjusted (monthly average)  1919 17.330769
## 8  Not Seasonally Adjusted (monthly average)  1920 20.038462
## 9  Not Seasonally Adjusted (monthly average)  1921 17.853846
## 10 Not Seasonally Adjusted (monthly average)  1922 16.753846
## # ... with 199 more rows
…
